<?xml version="1.0" encoding="UTF-8" standalone="no"?>
<!DOCTYPE svg PUBLIC "-//W3C//DTD SVG 1.1//EN" "http://www.w3.org/Graphics/SVG/1.1/DTD/svg11.dtd">
<svg width="100%" height="100%" viewBox="0 0 13 18" version="1.1" xmlns="http://www.w3.org/2000/svg" xmlns:xlink="http://www.w3.org/1999/xlink" xml:space="preserve" style="fill-rule:evenodd;clip-rule:evenodd;stroke-linejoin:round;stroke-miterlimit:1.41421;">
    <g id="Fill-199" transform="matrix(1,0,0,1,-229.893,-273.946)">
        <path d="M233.825,279.292C234.022,278.517 234.279,277.876 234.597,277.37C234.915,276.864 235.295,276.375 235.737,275.901C236.179,275.428 236.49,275.12 236.67,274.976C236.85,274.831 236.996,274.723 237.108,274.649C236.67,276.031 236.462,277.226 236.483,278.233C236.505,279.24 236.694,280.055 237.05,280.676C237.406,281.298 237.924,281.762 238.602,282.068C238.757,282.134 238.898,282.175 239.027,282.193C239.637,282.24 239.774,281.526 239.439,280.05C239.259,279.261 239.074,278.663 238.885,278.254C240.293,279.265 241.351,280.558 242.059,282.131C242.768,283.704 242.958,285.288 242.632,286.885C242.503,287.507 242.302,288.073 242.027,288.583C241.752,289.094 241.471,289.505 241.184,289.815C240.896,290.126 240.523,290.423 240.064,290.706C239.604,290.989 239.228,291.196 238.937,291.325C238.645,291.456 238.254,291.614 237.765,291.799C237.559,291.855 237.378,291.892 237.224,291.91C237.069,291.929 236.938,291.941 236.831,291.945C236.724,291.95 236.64,291.926 236.58,291.876C236.52,291.825 236.473,291.781 236.438,291.744C236.404,291.706 236.393,291.634 236.406,291.528C236.419,291.421 236.432,291.333 236.445,291.263C236.458,291.193 236.496,291.085 236.561,290.936C236.625,290.787 236.677,290.667 236.715,290.574C236.754,290.482 236.816,290.347 236.902,290.17C237.091,289.762 237.252,289.389 237.385,289.05C237.518,288.711 237.606,288.388 237.649,288.082C237.795,287.155 237.683,286.3 237.314,285.52C236.945,284.741 236.421,283.98 235.743,283.237C235.915,283.599 235.971,284.331 235.91,285.43C235.85,286.53 235.683,287.386 235.408,287.998C235.28,288.277 235.13,288.557 234.958,288.841C234.786,289.124 234.58,289.409 234.34,289.697C234.099,289.985 233.854,290.215 233.606,290.386C233.357,290.558 233.091,290.667 232.807,290.713C232.524,290.76 232.249,290.686 231.983,290.491C231.382,290.073 230.931,289.569 230.631,288.98C230.331,288.391 230.142,287.836 230.065,287.317C230.021,287.038 230,286.746 230,286.44C230,286.133 230.033,285.739 230.097,285.256C230.161,284.774 230.328,284.277 230.599,283.767C230.87,283.256 231.228,282.788 231.674,282.36C231.554,282.657 231.509,283.005 231.539,283.404C231.569,283.804 231.633,284.182 231.732,284.539C231.831,284.897 232.004,285.182 232.253,285.396C232.502,285.61 232.79,285.669 233.116,285.577C233.271,285.539 233.404,285.483 233.515,285.409C233.627,285.335 233.717,285.241 233.786,285.124C233.854,285.008 233.913,284.897 233.96,284.79C234.007,284.683 234.033,284.537 234.037,284.352C234.041,284.165 234.045,284.01 234.05,283.885C234.054,283.759 234.039,283.577 234.005,283.335C233.97,283.094 233.945,282.91 233.928,282.785C233.91,282.66 233.876,282.461 233.825,282.186C233.773,281.913 233.739,281.72 233.721,281.609C233.593,280.838 233.627,280.066 233.825,279.292"/>
    </g>
</svg>
